{
	"brands": null,
	"defaultIncidentType": "",
	"description": "Classifies Cortex XDR incidents.",
	"feed": false,
	"fromServerVersion": "6.0.0",
	"id": "Cortex XDR - IR",
	"incidentSamples": null,
	"indicatorSamples": null,
	"instanceIds": null,
	"itemVersion": "4.2.2",
	"keyTypeMap": {
		"PortScan": "Cortex XDR Port Scan",
		"XDR Incident": "Cortex XDR Incident"
	},
	"locked": false,
	"logicalVersion": 0,
	"mapping": null,
	"name": "Cortex XDR - Classifier",
	"nameRaw": "Cortex XDR - Classifier",
	"packID": "CortexXDR",
	"packPropagationLabels": [
		"all"
	],
	"sourceClassifierId": "",
	"system": true,
	"toServerVersion": "",
	"transformer": {
		"complex": {
			"accessor": "",
			"filters": [],
			"root": "description",
			"transformers": [
				{
					"args": {
						"dt": {
							"isContext": false,
							"value": {
								"complex": null,
								"simple": ".=val \u0026\u0026 val.toLowerCase().indexOf(\"port scan\") \u003e -1 ? \"PortScan\" : \"XDR Incident\""
							}
						}
					},
					"operator": "DT"
				}
			]
		},
		"simple": ""
	},
	"type": "classification",
	"unclassifiedCases": null,
	"version": -1
}