{
	"brands": null,
	"defaultIncidentType": "",
	"description": "Jira V2 mirror out classifier.",
	"feed": false,
	"fromServerVersion": "6.0.0",
	"id": "1a77d3a4-7a26-4223-82b1-ba0a5470899e",
	"incidentSamples": null,
	"indicatorSamples": null,
	"instanceIds": null,
	"itemVersion": "1.4.0",
	"keyTypeMap": null,
	"locked": false,
	"logicalVersion": 0,
	"mapping": {
		"dbot_classification_incident_type_all": {
			"dontMapEventToLabels": true,
			"internalMapping": {
				"assignee": {
					"complex": null,
					"simple": "assigneduser"
				},
				"description": {
					"complex": null,
					"simple": "jiradescription"
				},
				"dueDate": {
					"complex": null,
					"simple": "jiraduedate"
				},
				"labels": {
					"complex": null,
					"simple": "jiralabels"
				},
				"priority": {
					"complex": null,
					"simple": "jirapriority"
				},
				"status": {
					"complex": null,
					"simple": "jirastatus"
				},
				"summary": {
					"complex": null,
					"simple": "jirasummary"
				}
			}
		}
	},
	"name": "classifier-mapper-outgoing-Jira",
	"nameRaw": "classifier-mapper-outgoing-Jira",
	"packID": "Jira",
	"packPropagationLabels": [
		"all"
	],
	"sourceClassifierId": "",
	"system": true,
	"toServerVersion": "",
	"transformer": {
		"complex": null,
		"simple": ""
	},
	"type": "mapping-outgoing",
	"unclassifiedCases": null,
	"version": -1
}