{
	"associatedToAll": false,
	"associatedTypes": [
		"Cortex XDR Incident",
		"Cortex XDR Port Scan"
	],
	"breachScript": "",
	"caseInsensitive": true,
	"cliName": "xdrnetworkartifacts",
	"closeForm": false,
	"columns": [
		{
			"displayName": "Type",
			"fieldCalcScript": "",
			"isDefault": true,
			"isReadOnly": false,
			"key": "type",
			"required": false,
			"script": "",
			"selectValues": null,
			"type": "shortText",
			"width": 150
		},
		{
			"displayName": "Alert Count",
			"fieldCalcScript": "",
			"isDefault": true,
			"isReadOnly": false,
			"key": "alertcount",
			"required": false,
			"script": "",
			"selectValues": null,
			"type": "number",
			"width": 150
		},
		{
			"displayName": "Is Manual",
			"fieldCalcScript": "",
			"isDefault": true,
			"isReadOnly": false,
			"key": "ismanual",
			"required": false,
			"script": "",
			"selectValues": null,
			"type": "boolean",
			"width": 150
		},
		{
			"displayName": "Network Domain",
			"fieldCalcScript": "",
			"isDefault": true,
			"isReadOnly": false,
			"key": "networkdomain",
			"required": false,
			"script": "",
			"selectValues": null,
			"type": "shortText",
			"width": 150
		},
		{
			"displayName": "Network Remote IP",
			"fieldCalcScript": "",
			"isDefault": true,
			"isReadOnly": false,
			"key": "networkremoteip",
			"required": false,
			"script": "",
			"selectValues": null,
			"type": "shortText",
			"width": 150
		},
		{
			"displayName": "Network Remote Port",
			"fieldCalcScript": "",
			"isDefault": true,
			"isReadOnly": false,
			"key": "networkremoteport",
			"required": false,
			"script": "",
			"selectValues": null,
			"type": "shortText",
			"width": 150
		},
		{
			"displayName": "Network Country",
			"fieldCalcScript": "",
			"isDefault": true,
			"isReadOnly": false,
			"key": "networkcountry",
			"required": false,
			"script": "",
			"selectValues": null,
			"type": "shortText",
			"width": 150
		}
	],
	"content": true,
	"defaultRows": [
		{},
		{},
		{}
	],
	"description": "",
	"editForm": true,
	"fieldCalcScript": "",
	"fromServerVersion": "5.0.0",
	"group": 0,
	"hidden": false,
	"id": "incident_xdrnetworkartifacts",
	"isReadOnly": false,
	"itemVersion": "4.2.2",
	"locked": false,
	"mergeStrategy": "",
	"name": "XDR Network Artifacts",
	"neverSetAsRequired": false,
	"ownerOnly": false,
	"packID": "CortexXDR",
	"packPropagationLabels": [
		"all"
	],
	"placeholder": "",
	"propagationLabels": [],
	"required": false,
	"runScriptAfterUpdate": false,
	"script": "",
	"selectValues": [],
	"sla": 0,
	"system": false,
	"systemAssociatedTypes": null,
	"threshold": 72,
	"toServerVersion": "",
	"type": "grid",
	"unmapped": false,
	"unsearchable": false,
	"useAsKpi": false,
	"validatedError": "",
	"validationRegex": "",
	"version": -1
}