{
	"autorun": false,
	"closureScript": "",
	"color": "#7A7A7A",
	"days": 0,
	"daysR": 0,
	"default": false,
	"detached": false,
	"disabled": false,
	"extractSettings": {
		"fieldCliNameToExtractSettings": {},
		"mode": "Specific"
	},
	"fromServerVersion": "6.2.0",
	"hours": 0,
	"hoursR": 0,
	"id": "Cortex XDR - XCLOUD",
	"itemVersion": "4.2.2",
	"layout": "Cortex XDR - XCLOUD",
	"locked": false,
	"name": "Cortex XDR - XCLOUD",
	"onChangeRepAlg": 0,
	"packID": "CortexXDR",
	"packPropagationLabels": [
		"all"
	],
	"preProcessingScript": "",
	"propagationLabels": [],
	"readonly": false,
	"reputationCalc": 0,
	"system": true,
	"toServerVersion": "",
	"version": -1,
	"weeks": 0,
	"weeksR": 0
}