{
	"associatedToAll": false,
	"associatedTypes": [
		"Splunk Notable Generic"
	],
	"breachScript": "",
	"caseInsensitive": true,
	"cliName": "successfuldrilldownenrichment",
	"closeForm": false,
	"columns": null,
	"content": true,
	"defaultRows": null,
	"description": "Indicates whether the drilldown enrichment was successful.",
	"editForm": true,
	"fieldCalcScript": "",
	"fromServerVersion": "6.0.0",
	"group": 0,
	"hidden": false,
	"id": "incident_successfuldrilldownenrichment",
	"isReadOnly": false,
	"itemVersion": "2.2.2",
	"locked": false,
	"mergeStrategy": "",
	"name": "Successful Drilldown Enrichment",
	"neverSetAsRequired": false,
	"ownerOnly": false,
	"packID": "SplunkPy",
	"packPropagationLabels": [
		"all"
	],
	"placeholder": "",
	"propagationLabels": [
		"all"
	],
	"required": false,
	"runScriptAfterUpdate": false,
	"script": "",
	"selectValues": null,
	"sla": 0,
	"system": false,
	"systemAssociatedTypes": null,
	"threshold": 72,
	"toServerVersion": "",
	"type": "shortText",
	"unmapped": false,
	"unsearchable": false,
	"useAsKpi": false,
	"validatedError": "",
	"validationRegex": "",
	"version": -1
}