{
	"associatedToAll": false,
	"associatedTypes": [
		"User Profile",
		"IAM - New Hire",
		"IAM - Update User",
		"IAM - Terminate User",
		"IAM - Sync User",
		"IAM - Rehire User"
	],
	"breachScript": "",
	"caseInsensitive": true,
	"cliName": "manageremailaddress",
	"closeForm": false,
	"columns": null,
	"content": true,
	"defaultRows": null,
	"description": "",
	"editForm": true,
	"fieldCalcScript": "",
	"fromServerVersion": "5.0.0",
	"group": 0,
	"hidden": false,
	"id": "incident_manageremailaddress",
	"isReadOnly": false,
	"itemVersion": "3.1.24",
	"locked": false,
	"mergeStrategy": "",
	"name": "Manager Email Address",
	"neverSetAsRequired": false,
	"ownerOnly": false,
	"packID": "CommonTypes",
	"packPropagationLabels": [
		"all"
	],
	"placeholder": "",
	"propagationLabels": [],
	"required": false,
	"runScriptAfterUpdate": false,
	"script": "",
	"selectValues": null,
	"sla": 0,
	"system": false,
	"systemAssociatedTypes": null,
	"threshold": 72,
	"toServerVersion": "",
	"type": "shortText",
	"unmapped": false,
	"unsearchable": false,
	"useAsKpi": false,
	"validatedError": "",
	"validationRegex": "",
	"version": -1
}