{
	"associatedToAll": false,
	"associatedTypes": [
		"Configuration Setup"
	],
	"breachScript": "",
	"caseInsensitive": true,
	"cliName": "custompacksinstalled",
	"closeForm": false,
	"columns": [
		{
			"displayName": "Pack ID",
			"fieldCalcScript": "",
			"isDefault": true,
			"isReadOnly": false,
			"key": "packid",
			"required": false,
			"script": "",
			"selectValues": null,
			"type": "shortText",
			"width": 445
		},
		{
			"displayName": "Pack URL",
			"fieldCalcScript": "",
			"isDefault": true,
			"isReadOnly": false,
			"key": "packurl",
			"required": false,
			"script": "",
			"selectValues": null,
			"type": "shortText",
			"width": 300
		},
		{
			"displayName": "Installation Status",
			"fieldCalcScript": "",
			"isDefault": true,
			"isReadOnly": false,
			"key": "installationstatus",
			"required": false,
			"script": "",
			"selectValues": null,
			"type": "shortText",
			"width": 150
		}
	],
	"content": true,
	"defaultRows": [
		{}
	],
	"description": "Custom Packs which were installed.",
	"editForm": true,
	"fieldCalcScript": "",
	"fromServerVersion": "6.0.0",
	"group": 0,
	"hidden": false,
	"id": "incident_custompacksinstalled",
	"isReadOnly": false,
	"itemVersion": "1.0.8",
	"locked": false,
	"mergeStrategy": "",
	"name": "Custom Packs Installed",
	"neverSetAsRequired": false,
	"ownerOnly": false,
	"packID": "ContentManagement",
	"packPropagationLabels": [
		"all"
	],
	"placeholder": "",
	"propagationLabels": [],
	"required": false,
	"runScriptAfterUpdate": false,
	"script": "",
	"selectValues": null,
	"sla": 0,
	"system": false,
	"systemAssociatedTypes": null,
	"threshold": 72,
	"toServerVersion": "",
	"type": "grid",
	"unmapped": false,
	"unsearchable": false,
	"useAsKpi": false,
	"validatedError": "",
	"validationRegex": "",
	"version": -1
}