{
	"associatedToAll": false,
	"associatedTypes": [
		"Cortex XDR Incident",
		"Cortex XDR Port Scan",
		"Cortex XDR Device Control Violations",
		"Cortex XDR Disconnected endpoints"
	],
	"breachScript": "",
	"caseInsensitive": true,
	"cliName": "xdrsimilarincidents",
	"closeForm": false,
	"columns": [
		{
			"displayName": "Incident Id",
			"fieldCalcScript": "",
			"isDefault": true,
			"isReadOnly": false,
			"key": "incidentid",
			"required": false,
			"script": "",
			"selectValues": null,
			"type": "url",
			"width": 150
		},
		{
			"displayName": "Created",
			"fieldCalcScript": "",
			"isDefault": true,
			"isReadOnly": false,
			"key": "created",
			"required": false,
			"script": "",
			"selectValues": null,
			"type": "shortText",
			"width": 150
		},
		{
			"displayName": " Name",
			"fieldCalcScript": "",
			"isDefault": true,
			"isReadOnly": false,
			"key": "name",
			"required": false,
			"script": "",
			"selectValues": null,
			"type": "shortText",
			"width": 160
		},
		{
			"displayName": "Incident Similarity",
			"fieldCalcScript": "",
			"isDefault": true,
			"isReadOnly": false,
			"key": "incidentsimilarity",
			"required": false,
			"script": "",
			"selectValues": null,
			"type": "shortText",
			"width": 150
		},
		{
			"displayName": "Username",
			"fieldCalcScript": "",
			"isDefault": true,
			"isReadOnly": false,
			"key": "username",
			"required": false,
			"script": "",
			"selectValues": null,
			"type": "shortText",
			"width": 150
		},
		{
			"displayName": "Hostname",
			"fieldCalcScript": "",
			"isDefault": true,
			"isReadOnly": false,
			"key": "hostname",
			"required": false,
			"script": "",
			"selectValues": null,
			"type": "shortText",
			"width": 150
		},
		{
			"displayName": "OS actor command line",
			"fieldCalcScript": "",
			"isDefault": true,
			"isReadOnly": false,
			"key": "osactorcommandline",
			"required": false,
			"script": "",
			"selectValues": null,
			"type": "shortText",
			"width": 150
		}
	],
	"content": true,
	"defaultRows": [
		{},
		{},
		{}
	],
	"description": "",
	"editForm": true,
	"fieldCalcScript": "",
	"fromServerVersion": "6.0.0",
	"group": 0,
	"hidden": false,
	"id": "incident_xdrsimilarincidents",
	"isReadOnly": false,
	"itemVersion": "4.2.2",
	"locked": false,
	"mergeStrategy": "",
	"name": "XDR Similar Incidents",
	"neverSetAsRequired": false,
	"ownerOnly": false,
	"packID": "CortexXDR",
	"packPropagationLabels": [
		"all"
	],
	"placeholder": "",
	"propagationLabels": [],
	"required": false,
	"runScriptAfterUpdate": false,
	"script": "",
	"selectValues": null,
	"sla": 0,
	"system": false,
	"systemAssociatedTypes": null,
	"threshold": 72,
	"toServerVersion": "",
	"type": "grid",
	"unmapped": false,
	"unsearchable": false,
	"useAsKpi": false,
	"validatedError": "",
	"validationRegex": "",
	"version": -1
}