{
	"associatedToAll": false,
	"associatedTypes": [
		"Jira Incident",
		"Jira Create Issue and Mirror"
	],
	"breachScript": "",
	"caseInsensitive": true,
	"cliName": "jiraattachments",
	"closeForm": false,
	"columns": null,
	"content": true,
	"defaultRows": null,
	"description": "",
	"editForm": true,
	"fieldCalcScript": "",
	"fromServerVersion": "6.0.0",
	"group": 0,
	"hidden": false,
	"id": "incident_jiraattachments",
	"isReadOnly": false,
	"itemVersion": "1.4.0",
	"locked": false,
	"mergeStrategy": "",
	"name": "Jira Attachments",
	"neverSetAsRequired": false,
	"ownerOnly": false,
	"packID": "Jira",
	"packPropagationLabels": [
		"all"
	],
	"placeholder": "",
	"propagationLabels": [],
	"required": false,
	"runScriptAfterUpdate": false,
	"script": "",
	"selectValues": null,
	"sla": 0,
	"system": false,
	"systemAssociatedTypes": [
		"Jira Incident",
		"Jira Create Issue and Mirror"
	],
	"threshold": 72,
	"toServerVersion": "",
	"type": "attachments",
	"unmapped": false,
	"unsearchable": false,
	"useAsKpi": false,
	"validatedError": "",
	"validationRegex": "",
	"version": -1
}