{
	"associatedToAll": true,
	"associatedTypes": null,
	"breachScript": "",
	"caseInsensitive": true,
	"cliName": "searchid",
	"closeForm": false,
	"columns": null,
	"content": false,
	"defaultRows": null,
	"description": "",
	"editForm": true,
	"fieldCalcScript": "",
	"fromServerVersion": "",
	"group": 0,
	"hidden": false,
	"id": "incident_searchid",
	"isReadOnly": false,
	"itemVersion": "",
	"locked": false,
	"mergeStrategy": "",
	"name": "search_id",
	"neverSetAsRequired": false,
	"ownerOnly": false,
	"packID": "",
	"placeholder": "",
	"propagationLabels": [
		"all"
	],
	"required": false,
	"runScriptAfterUpdate": false,
	"script": "",
	"selectValues": null,
	"sla": 0,
	"system": false,
	"systemAssociatedTypes": null,
	"threshold": 72,
	"toServerVersion": "",
	"type": "shortText",
	"unmapped": false,
	"unsearchable": false,
	"useAsKpi": false,
	"validatedError": "",
	"validationRegex": "",
	"version": -1
}