{
	"associatedToAll": false,
	"associatedTypes": [
		"Cortex XDR Device Control Violations",
		"Cortex XDR Disconnected endpoints",
		"Cortex XDR Incident",
		"Cortex XDR Port Scan"
	],
	"breachScript": "",
	"caseInsensitive": true,
	"cliName": "xdrusers",
	"closeForm": false,
	"columns": null,
	"content": true,
	"defaultRows": null,
	"description": "",
	"editForm": true,
	"fieldCalcScript": "",
	"fromServerVersion": "5.0.0",
	"group": 0,
	"hidden": false,
	"id": "incident_xdrusers",
	"isReadOnly": false,
	"itemVersion": "4.2.2",
	"locked": false,
	"mergeStrategy": "",
	"name": "XDR Users",
	"neverSetAsRequired": false,
	"ownerOnly": false,
	"packID": "CortexXDR",
	"packPropagationLabels": [
		"all"
	],
	"placeholder": "",
	"propagationLabels": [],
	"required": false,
	"runScriptAfterUpdate": false,
	"script": "",
	"selectValues": [],
	"sla": 0,
	"system": false,
	"systemAssociatedTypes": null,
	"threshold": 72,
	"toServerVersion": "",
	"type": "multiSelect",
	"unmapped": false,
	"unsearchable": false,
	"useAsKpi": true,
	"validatedError": "",
	"validationRegex": "",
	"version": -1
}