{
	"close": null,
	"description": "",
	"detached": false,
	"details": null,
	"detailsV2": {
		"TypeName": "",
		"tabs": [
			{
				"id": "summary",
				"name": "Legacy Summary",
				"type": "summary"
			},
			{
				"id": "caseinfoid",
				"name": "Incident Info",
				"sections": [
					{
						"displayType": "ROW",
						"h": 2,
						"i": "caseinfoid-fce71720-98b0-11e9-97d7-ed26ef9e46c8",
						"isVisible": true,
						"items": [
							{
								"endCol": 2,
								"fieldId": "type",
								"height": 22,
								"id": "incident-type-field",
								"index": 0,
								"sectionItemType": "field",
								"startCol": 0
							},
							{
								"endCol": 2,
								"fieldId": "owner",
								"height": 22,
								"id": "incident-owner-field",
								"index": 1,
								"sectionItemType": "field",
								"startCol": 0
							},
							{
								"endCol": 2,
								"fieldId": "sourceinstance",
								"height": 22,
								"id": "incident-sourceInstance-field",
								"index": 2,
								"sectionItemType": "field",
								"startCol": 0
							},
							{
								"dropEffect": "move",
								"endCol": 2,
								"fieldId": "sourcebrand",
								"height": 22,
								"id": "incident-sourceBrand-field",
								"index": 3,
								"listId": "caseinfoid-fce71720-98b0-11e9-97d7-ed26ef9e46c8",
								"sectionItemType": "field",
								"startCol": 0
							},
							{
								"endCol": 2,
								"fieldId": "playbookid",
								"height": 22,
								"id": "incident-playbookId-field",
								"index": 4,
								"sectionItemType": "field",
								"startCol": 0
							}
						],
						"maxW": 3,
						"minH": 1,
						"moved": false,
						"name": "XSOAR Case Details",
						"static": false,
						"w": 1,
						"x": 0,
						"y": 6
					},
					{
						"h": 4,
						"i": "caseinfoid-61263cc0-98b1-11e9-97d7-ed26ef9e46c8",
						"maxW": 3,
						"minH": 1,
						"moved": false,
						"name": "Notes",
						"static": false,
						"type": "notes",
						"w": 2,
						"x": 0,
						"y": 2
					},
					{
						"displayType": "ROW",
						"h": 2,
						"i": "caseinfoid-6aabad20-98b1-11e9-97d7-ed26ef9e46c8",
						"maxW": 3,
						"minH": 1,
						"moved": false,
						"name": "Work Plan",
						"static": false,
						"type": "workplan",
						"w": 1,
						"x": 2,
						"y": 6
					},
					{
						"displayType": "ROW",
						"h": 2,
						"i": "caseinfoid-770ec200-98b1-11e9-97d7-ed26ef9e46c8",
						"isVisible": true,
						"maxW": 3,
						"minH": 1,
						"moved": false,
						"name": "XSOAR Linked Incidents",
						"static": false,
						"type": "linkedIncidents",
						"w": 3,
						"x": 0,
						"y": 8
					},
					{
						"displayType": "ROW",
						"h": 2,
						"hideName": false,
						"i": "caseinfoid-38d36960-4ead-11eb-a3d0-ef4e96fe7991",
						"items": [
							{
								"endCol": 2,
								"fieldId": "jiraduedate",
								"height": 22,
								"id": "425de2d0-4ead-11eb-a3d0-ef4e96fe7991",
								"index": 1,
								"sectionItemType": "field",
								"startCol": 0
							},
							{
								"endCol": 2,
								"fieldId": "lastupdatetime",
								"height": 22,
								"id": "55eb8f10-4f24-11eb-8eb5-4fcf0e00b716",
								"index": 1,
								"sectionItemType": "field",
								"startCol": 0
							},
							{
								"endCol": 2,
								"fieldId": "lastseen",
								"height": 22,
								"id": "4983e650-4f24-11eb-8eb5-4fcf0e00b716",
								"index": 2,
								"sectionItemType": "field",
								"startCol": 0
							},
							{
								"endCol": 2,
								"fieldId": "createdtime",
								"height": 22,
								"id": "44a45750-4f24-11eb-8eb5-4fcf0e00b716",
								"index": 3,
								"sectionItemType": "field",
								"startCol": 0
							}
						],
						"maxW": 3,
						"minH": 1,
						"moved": false,
						"name": "Jira TimeLine ",
						"static": false,
						"w": 1,
						"x": 2,
						"y": 0
					},
					{
						"description": "",
						"displayType": "ROW",
						"h": 2,
						"hideName": false,
						"i": "caseinfoid-96429a60-8af5-11eb-a9b4-532789dcef33",
						"items": [
							{
								"endCol": 2,
								"fieldId": "dbotmirrorinstance",
								"height": 22,
								"id": "3fd2a750-8af6-11eb-a9b4-532789dcef33",
								"index": 0,
								"sectionItemType": "field",
								"startCol": 0
							},
							{
								"endCol": 2,
								"fieldId": "dbotmirrordirection",
								"height": 22,
								"id": "3cd45b70-8af6-11eb-a9b4-532789dcef33",
								"index": 1,
								"sectionItemType": "field",
								"startCol": 0
							},
							{
								"endCol": 2,
								"fieldId": "dbotmirrortags",
								"height": 22,
								"id": "8dc93770-8b24-11eb-81f2-433a511bae17",
								"index": 2,
								"sectionItemType": "field",
								"startCol": 0
							},
							{
								"dropEffect": "move",
								"endCol": 2,
								"fieldId": "incomingmirrorerror",
								"height": 44,
								"id": "382a5b60-8af6-11eb-a9b4-532789dcef33",
								"index": 2,
								"listId": "caseinfoid-96429a60-8af5-11eb-a9b4-532789dcef33",
								"sectionItemType": "field",
								"startCol": 0
							}
						],
						"maxW": 3,
						"minH": 1,
						"moved": false,
						"name": "Mirroring Information",
						"static": false,
						"w": 1,
						"x": 1,
						"y": 6
					},
					{
						"description": "",
						"displayType": "ROW",
						"h": 2,
						"hideName": false,
						"i": "caseinfoid-19bcdcb0-26b0-11ec-a10b-cd7294533e2a",
						"items": [
							{
								"endCol": 2,
								"fieldId": "jirareportername",
								"height": 22,
								"id": "5af1d900-4ead-11eb-a3d0-ef4e96fe7991",
								"index": 0,
								"sectionItemType": "field",
								"startCol": 0
							},
							{
								"endCol": 2,
								"fieldId": "assigneduser",
								"height": 22,
								"id": "75712b60-4f24-11eb-8eb5-4fcf0e00b716",
								"index": 1,
								"sectionItemType": "field",
								"startCol": 0
							},
							{
								"dropEffect": "move",
								"endCol": 2,
								"fieldId": "jirareporteremail",
								"height": 22,
								"id": "59433ea0-4ead-11eb-a3d0-ef4e96fe7991",
								"index": 2,
								"listId": "caseinfoid-38d36960-4ead-11eb-a3d0-ef4e96fe7991",
								"sectionItemType": "field",
								"startCol": 0
							}
						],
						"maxW": 3,
						"minH": 1,
						"moved": false,
						"name": "Jira Ticket Members",
						"static": false,
						"w": 1,
						"x": 2,
						"y": 2
					},
					{
						"displayType": "ROW",
						"h": 2,
						"hideName": false,
						"i": "caseinfoid-544d62a0-26b0-11ec-a10b-cd7294533e2a",
						"items": [
							{
								"endCol": 2,
								"fieldId": "jirapriority",
								"height": 22,
								"id": "5a16bb40-4ead-11eb-a3d0-ef4e96fe7991",
								"index": 0,
								"sectionItemType": "field",
								"startCol": 0
							},
							{
								"dropEffect": "move",
								"endCol": 2,
								"fieldId": "jirastatus",
								"height": 22,
								"id": "5c0e93a0-4ead-11eb-a3d0-ef4e96fe7991",
								"index": 1,
								"listId": "caseinfoid-544d62a0-26b0-11ec-a10b-cd7294533e2a",
								"sectionItemType": "field",
								"startCol": 0
							},
							{
								"endCol": 2,
								"fieldId": "jiralabels",
								"height": 22,
								"id": "58464100-4ead-11eb-a3d0-ef4e96fe7991",
								"index": 2,
								"sectionItemType": "field",
								"startCol": 0
							},
							{
								"dropEffect": "move",
								"endCol": 2,
								"fieldId": "jiraid",
								"height": 22,
								"id": "96eb7fe0-064c-11ec-801a-efe0327f2d00",
								"index": 3,
								"listId": "caseinfoid-544d62a0-26b0-11ec-a10b-cd7294533e2a",
								"sectionItemType": "field",
								"startCol": 0
							},
							{
								"endCol": 2,
								"fieldId": "jiraissuekey",
								"height": 22,
								"id": "4515ab80-2bf6-11ec-a27d-7950ba87d817",
								"index": 4,
								"sectionItemType": "field",
								"startCol": 0
							},
							{
								"endCol": 2,
								"fieldId": "jiratransitions",
								"height": 22,
								"id": "d83fbd70-7c3c-11eb-9b0a-25e7cc4d953d",
								"index": 5,
								"sectionItemType": "field",
								"startCol": 0
							}
						],
						"maxW": 3,
						"minH": 1,
						"moved": false,
						"name": "Jira Issue Details ",
						"static": false,
						"w": 1,
						"x": 0,
						"y": 0
					},
					{
						"displayType": "ROW",
						"h": 2,
						"hideName": false,
						"i": "caseinfoid-1bc895c0-26b1-11ec-a10b-cd7294533e2a",
						"items": [
							{
								"dropEffect": "move",
								"endCol": 2,
								"fieldId": "jiraattachments",
								"height": 53,
								"id": "401c0920-4ead-11eb-a3d0-ef4e96fe7991",
								"index": 0,
								"listId": "caseinfoid-38d36960-4ead-11eb-a3d0-ef4e96fe7991",
								"sectionItemType": "field",
								"startCol": 0
							}
						],
						"maxW": 3,
						"minH": 1,
						"moved": false,
						"name": "Jira Attachments ",
						"static": false,
						"w": 1,
						"x": 2,
						"y": 4
					},
					{
						"displayType": "ROW",
						"h": 2,
						"hideName": false,
						"i": "caseinfoid-3c28d340-26b4-11ec-a10b-cd7294533e2a",
						"items": [
							{
								"dropEffect": "move",
								"endCol": 2,
								"fieldId": "jirasummary",
								"height": 22,
								"id": "5d2533c0-4ead-11eb-a3d0-ef4e96fe7991",
								"index": 0,
								"listId": "caseinfoid-544d62a0-26b0-11ec-a10b-cd7294533e2a",
								"sectionItemType": "field",
								"startCol": 0
							},
							{
								"endCol": 2,
								"fieldId": "jiradescription",
								"height": 22,
								"id": "55fced40-4ead-11eb-a3d0-ef4e96fe7991",
								"index": 1,
								"sectionItemType": "field",
								"startCol": 0
							}
						],
						"maxW": 3,
						"minH": 1,
						"moved": false,
						"name": "Jira Issue Description",
						"static": false,
						"w": 1,
						"x": 1,
						"y": 0
					}
				],
				"type": "custom"
			},
			{
				"id": "warRoom",
				"name": "War Room",
				"type": "warRoom"
			},
			{
				"id": "workPlan",
				"name": "Work Plan",
				"type": "workPlan"
			},
			{
				"id": "evidenceBoard",
				"name": "Evidence Board",
				"type": "evidenceBoard"
			},
			{
				"id": "relatedIncidents",
				"name": "Related Incidents",
				"type": "relatedIncidents"
			},
			{
				"id": "canvas",
				"name": "Canvas",
				"type": "canvas"
			}
		]
	},
	"edit": null,
	"fromServerVersion": "",
	"group": "incident",
	"id": "Jira Incident Layout",
	"indicatorsDetails": null,
	"indicatorsQuickView": null,
	"itemVersion": "1.4.0",
	"locked": false,
	"mobile": null,
	"name": "Jira Incident Layout",
	"packID": "Jira",
	"packPropagationLabels": [
		"all"
	],
	"propagationLabels": [],
	"quickView": null,
	"system": true,
	"toServerVersion": "",
	"version": -1
}