{
	"category": "",
	"dataType": "incidents",
	"dateRange": {
		"fromDate": "0001-01-01T00:00:00Z",
		"fromDateLicense": "0001-01-01T00:00:00Z",
		"period": {
			"by": "",
			"byFrom": "days",
			"byTo": "",
			"field": "",
			"fromValue": 7,
			"toValue": null
		},
		"toDate": "0001-01-01T00:00:00Z"
	},
	"fromServerVersion": "6.0.0",
	"id": "b49cb3c0-33e0-493d-8462-31929b4509e1",
	"isPredefined": true,
	"itemVersion": "4.2.2",
	"name": "Cortex XDR Active Low Severity Incidents",
	"packID": "CortexXDR",
	"packPropagationLabels": [
		"all"
	],
	"params": {
		"colors": {
			"isEnabled": true,
			"items": {
				"#418ae6": {
					"value": -1
				}
			},
			"type": "above"
		},
		"tableColumns": [
			{
				"isDefault": true,
				"key": "id",
				"position": 0,
				"width": 110
			},
			{
				"isDefault": true,
				"key": "name",
				"position": 2,
				"width": 300
			},
			{
				"isDefault": true,
				"key": "type",
				"position": 3,
				"width": 200
			},
			{
				"isDefault": true,
				"key": "severity",
				"position": 4,
				"width": 80
			},
			{
				"isDefault": true,
				"key": "status",
				"position": 5,
				"width": 80
			},
			{
				"isDefault": true,
				"key": "owner",
				"position": 6,
				"width": 160
			},
			{
				"isDefault": true,
				"key": "roles",
				"position": 7,
				"width": 160
			},
			{
				"isDefault": true,
				"key": "playbookId",
				"position": 8,
				"width": 150
			},
			{
				"isDefault": true,
				"key": "occurred",
				"position": 9,
				"width": 200
			},
			{
				"isDefault": true,
				"key": "dueDate",
				"position": 10,
				"width": 200
			}
		]
	},
	"propagationLabels": [],
	"query": "type:\"Cortex XDR Incident\" and severity:Low and status:Active",
	"size": 0,
	"sort": null,
	"toServerVersion": "",
	"version": -1,
	"widgetType": "trend"
}