{
	"category": "",
	"dataType": "scripts",
	"dateRange": {
		"fromDate": "0001-01-01T00:00:00Z",
		"fromDateLicense": "0001-01-01T00:00:00Z",
		"period": {
			"by": "",
			"byFrom": "days",
			"byTo": "",
			"field": "",
			"fromValue": null,
			"toValue": null
		},
		"toDate": "0001-01-01T00:00:00Z"
	},
	"fromServerVersion": "6.2.0",
	"id": "5827f988-df26-42a5-8c46-18b3af444702",
	"isPredefined": true,
	"itemVersion": "4.2.2",
	"name": "Cortex XDR Groups - Scatter",
	"packID": "CortexXDR",
	"packPropagationLabels": [
		"all"
	],
	"params": null,
	"propagationLabels": [],
	"query": "DBotGroupXDRIncidents",
	"size": 0,
	"sort": null,
	"toServerVersion": "",
	"version": -1,
	"widgetType": "scatter"
}